%YAML 1.1
%TAG !u! tag:unity3d.com,2011:
--- !u!1045 &1
EditorBuildSettings:
  m_ObjectHideFlags: 0
  serializedVersion: 2
  m_Scenes:
  - enabled: 1
    path: Assets/Scenes/MainScene.unity
    guid: 0a13fe2af457a4ab49a2972d32be3d45
  - enabled: 1
    path: Assets/Scenes/LoginScene.unity
    guid: 002953ecca8cc46cf844441917a9bbb0
  - enabled: 1
    path: Assets/Scenes/LobbyScene.unity
    guid: f933d3b363eb85643a2e2ee9cf69f0e1
  - enabled: 1
    path: Assets/Scenes/ProfileScene.unity
    guid: 7e297309dcba49843a2d322a2e52c6f6
  m_configObjects: {}
